2021/07/22 10:31:14 [error] 23#23: *1 open() "/var/www/site/projectlast" failed (2: No such file or directory), client: 172.31.0.1, server: , request: "GET / HTTP/1.1", host: "localhost"
2021/07/22 10:31:14 [error] 23#23: *1 open() "/var/www/site/projectlast" failed (2: No such file or directory), client: 172.31.0.1, server: , request: "GET /favicon.ico HTTP/1.1", host: "localhost", referrer: "http://localhost/"
2021/07/22 10:31:14 [error] 23#23: *2 open() "/var/www/site/projectlast" failed (2: No such file or directory), client: 172.31.0.1, server: , request: "GET /apple-touch-icon-precomposed.png HTTP/1.1", host: "localhost"
2021/07/22 10:31:14 [error] 23#23: *2 open() "/var/www/site/projectlast" failed (2: No such file or directory), client: 172.31.0.1, server: , request: "GET /apple-touch-icon.png HTTP/1.1", host: "localhost"
2021/07/22 10:33:11 [error] 23#23: *3 open() "/var/www/site/projectlast" failed (2: No such file or directory), client: 172.31.0.1, server: , request: "GET / HTTP/1.1", host: "localhost"
2021/07/22 10:34:28 [error] 23#23: *4 open() "/var/www/site/projectlast" failed (2: No such file or directory), client: 172.31.0.1, server: , request: "GET / HTTP/1.1", host: "localhost"
2021/07/22 10:35:20 [error] 23#23: *1 open() "/var/www/site/projectlast" failed (2: No such file or directory), client: 172.31.0.1, server: , request: "GET / HTTP/1.1", host: "localhost"
2021/07/22 10:35:45 [error] 23#23: *1 open() "/var/www/site/projectlast" failed (2: No such file or directory), client: 172.31.0.1, server: , request: "GET / HTTP/1.1", host: "localhost"
2021/07/22 10:35:51 [error] 23#23: *1 open() "/var/www/site/projectlast" failed (2: No such file or directory), client: 172.31.0.1, server: , request: "GET / HTTP/1.1", host: "localhost"
2021/07/22 10:38:42 [error] 23#23: *2 open() "/var/www/site/projectlast" failed (2: No such file or directory), client: 172.31.0.1, server: , request: "GET / HTTP/1.1", host: "localhost"
2021/07/22 10:38:43 [error] 23#23: *2 open() "/var/www/site/projectlast" failed (2: No such file or directory), client: 172.31.0.1, server: , request: "GET / HTTP/1.1", host: "localhost"
